boto3==1.14.38
Django==2.2.13
django-ckeditor==5.9.0
django-crispy-forms==1.9.1
django-debug-toolbar==2.2
django-simple-history==2.10.0
djangorestframework==3.11.0
djangorestframework-jwt==1.11.0
django-storages==1.9.1
gunicorn==20.0.4
num2words==0.5.10
Pillow==7.1.2
psycopg2-binary==2.8.5
PyJWT==1.7.1
python-dateutil==2.8.1
python-decouple==3.1
pytz==2020.1